{"response": {"status": "ok", "orderBy": "relevance", "pageSize": 5, "userTier": "developer", "results": [{"sectionId": "politics", "webTitle": "Politics Live - readers' edition - Friday 30 October", "webUrl": "http://www.theguardian.com/politics/blog/live/2015/oct/30/politics-live-readers-edition-friday-30-october", "sectionName": "Politics", "apiUrl": "http://content.guardianapis.com/politics/blog/live/2015/oct/30/politics-live-readers-edition-friday-30-october", "webPublicationDate": "2015-10-30T08:08:57Z", "type": "liveblog", "id": "politics/blog/live/2015/oct/30/politics-live-readers-edition-friday-30-october"}, {"sectionId": "environment", "webTitle": "Renewable energy and the politics of subsidies | Letters", "webUrl": "http://www.theguardian.com/environment/2015/oct/28/renewable-energy-and-the-politics-of-subsidies", "sectionName": "Environment", "apiUrl": "http://content.guardianapis.com/environment/2015/oct/28/renewable-energy-and-the-politics-of-subsidies", "webPublicationDate": "2015-10-28T19:32:15Z", "type": "article", "id": "environment/2015/oct/28/renewable-energy-and-the-politics-of-subsidies"}, {"sectionId": "politics", "webTitle": "Politics Live - readers' edition - Friday 23 October", "webUrl": "http://www.theguardian.com/politics/live/2015/oct/23/politics-live-readers-edition-friday-23-october", "sectionName": "Politics", "apiUrl": "http://content.guardianapis.com/politics/live/2015/oct/23/politics-live-readers-edition-friday-23-october", "webPublicationDate": "2015-10-23T08:26:49Z", "type": "article", "id": "politics/live/2015/oct/23/politics-live-readers-edition-friday-23-october"}, {"sectionId": "politics", "webTitle": "Politics Live - readers' edition - Friday 9 October", "webUrl": "http://www.theguardian.com/politics/blog/live/2015/oct/09/politics-live-readers-edition-friday-9-october", "sectionName": "Politics", "apiUrl": "http://content.guardianapis.com/politics/blog/live/2015/oct/09/politics-live-readers-edition-friday-9-october", "webPublicationDate": "2015-10-09T07:00:19Z", "type": "article", "id": "politics/blog/live/2015/oct/09/politics-live-readers-edition-friday-9-october"}, {"sectionId": "politics", "webTitle": "Corbyn adviser 'backed non-Labour candidates at least three times'", "webUrl": "http://www.theguardian.com/politics/2015/oct/28/corbyn-adviser-andrew-fisher-backed-non-labour-candidates-three-times", "sectionName": "Politics", "apiUrl": "http://content.guardianapis.com/politics/2015/oct/28/corbyn-adviser-andrew-fisher-backed-non-labour-candidates-three-times", "webPublicationDate": "2015-10-28T11:55:27Z", "type": "article", "id": "politics/2015/oct/28/corbyn-adviser-andrew-fisher-backed-non-labour-candidates-three-times"}], "startIndex": 1, "currentPage": 1, "total": 203006, "pages": 40602}}